{
  "$schema": "https://docs.renovatebot.com/renovate-schema.json",
  "extends": ["config:base", ":dependencyDashboard"],
  "argocd": {
    "fileMatch": [".*y[a]?ml$"]
  },
  "regexManagers": [
    {
      "fileMatch": [".*y[a]?ml$"],
      "matchStrings": [
        "datasource=(?<datasource>.*?)\\s+repo(?:sitory)?: \"?(?<depName>.*?)\"?\\s+tag: \"?(?<currentValue>.*)\"?",
        "datasource=(?<datasource>.*?) type=oneline\\s+image:\\s+\"?(?<depName>[^:]*):(?<currentValue>[^\\s\"]+)"
      ],
      "versioningTemplate": "docker"
    },
    {
      "fileMatch": ["kustomization.ya?ml$"],
      "matchStrings": ["https:\/\/github\\.com\/(?<depName>.*\/.*?)\/releases\/download\/(?<currentValue>.*?)\/"],
      "datasourceTemplate": "github-releases"
    },
    {
      "fileMatch": ["kustomization.ya?ml$"],
      "matchStrings": ["https:\/\/raw\\.githubusercontent\\.com\/(?<depName>[^\/]*\/[^\/]*)\/(?<currentValue>.*?)\/"],
      "datasourceTemplate": "github-tags"
    }

  ],
  "kustomize": {
    "fileMatch": ["kustomization.yaml"]
  },
  "assignees": ["kylesferrazza"]
}
